WWWWWWWWWWWWWWWWWWWWWWWWWWWWWWWWWWWWWWWWWWWWWWWWWWWWWWWWWWWWWWWWWWWWWWWWWWWWWWWWWWWWWWWWWWWWWWWWWWWWWW
W    W   D                D                                 W                          W        W D  W
W    W D                            wwwww                   W                 W        W        W    W
W    WWWW              w                 D  w               W                 W        W        WWW  W
W       W              w                 w         www      WWWWWWWWWWWWWWWWWWWW       WW            W
W   P   W             w    w           wwww       www                          W                     W
W       W           W  D     w           D        www                          WWWWWWWWW             W
W       W          W  D       w         w    wwwww            WD                         W  WWWWW    W
W                 w           w       w    w               W W Ww                      W      W      W
WWWWWWWWW           w         w           wwwwww            D W                         W      W     W
W D  w  D            W   D     w         w                                              W      W     W
W    w              W        w         wD                                               WWWWWWWW     W
W    w            w         w          w                W WWWWWWWWW      W                           W
W    W           w w       w            www           w  D        W      W             W D           W
W  D W          w     D    w         w               w            W      w             W             W
W    W        w            w        wwwwww          ww            W      w             W             W
W    WWWW     w   D      w  w            w           w    D       W      W             Wwwwww  wwwwwwW
W                         w       w                               W D    W             W D Dw  w D   W
W           W   W     w             w                             W      w             W    w  w   D W
W D  W     WD  w  W  w    w w           wW                        W      W             W    w  wD    W
W    W            D       w       www     W               W       WWWWWWWW             W    w  w     W
W    W    W            D     D             W               W                           W    w  w     W
W    W   WDW                             W               W                             W   W    W    W
W    W  w   WWW    W     w     w         W            WWWWWW                           W             W
W    W DW      W D W  w D w w  D w          W                W                D        W             W
W     WW        W     ww   www           W               W    D               D D      W    W   W    W
W D                                      W               D                             W    D    D   W
WWWWWWWWWWWWWWWWWWWWWWWWWWWWWWWWWWWWWWWWWWWWWWWWWWWWWWWWWWWWWWWWWWWWWWWWWWWWWWWWWWWWWWWWWWWWWWWWWWWWWW